<svg width="130" height="50" viewBox="0 0 130 50" fill="none" xmlns="http://www.w3.org/2000/svg">
<path d="M73.376 23.97C74.256 24.278 74.9453 24.762 75.444 25.422C75.9427 26.0673 76.192 26.852 76.192 27.776C76.192 29.1253 75.6493 30.1667 74.564 30.9C73.4787 31.6333 71.9093 32 69.856 32H61.54V16.6H69.416C71.3813 16.6 72.8773 16.9667 73.904 17.7C74.9307 18.4187 75.444 19.394 75.444 20.626C75.444 21.3593 75.2607 22.0193 74.894 22.606C74.542 23.178 74.036 23.6327 73.376 23.97ZM65.852 19.746V22.716H68.844C70.3107 22.716 71.044 22.2173 71.044 21.22C71.044 20.2373 70.3107 19.746 68.844 19.746H65.852ZM69.504 28.854C71.0293 28.854 71.792 28.3333 71.792 27.292C71.792 26.2507 71.0293 25.73 69.504 25.73H65.852V28.854H69.504ZM84.2342 32.198C82.9582 32.198 81.8069 31.934 80.7802 31.406C79.7535 30.878 78.9469 30.1447 78.3602 29.206C77.7882 28.2673 77.5022 27.204 77.5022 26.016C77.5022 24.8427 77.7882 23.7867 78.3602 22.848C78.9469 21.9093 79.7462 21.1833 80.7582 20.67C81.7849 20.142 82.9435 19.878 84.2342 19.878C85.5249 19.878 86.6835 20.142 87.7102 20.67C88.7369 21.1833 89.5362 21.9093 90.1082 22.848C90.6802 23.772 90.9662 24.828 90.9662 26.016C90.9662 27.204 90.6802 28.2673 90.1082 29.206C89.5362 30.1447 88.7369 30.878 87.7102 31.406C86.6835 31.934 85.5249 32.198 84.2342 32.198ZM84.2342 28.876C84.9675 28.876 85.5689 28.6267 86.0382 28.128C86.5075 27.6147 86.7422 26.9107 86.7422 26.016C86.7422 25.136 86.5075 24.4467 86.0382 23.948C85.5689 23.4493 84.9675 23.2 84.2342 23.2C83.5009 23.2 82.8995 23.4493 82.4302 23.948C81.9609 24.4467 81.7262 25.136 81.7262 26.016C81.7262 26.9107 81.9609 27.6147 82.4302 28.128C82.8995 28.6267 83.5009 28.876 84.2342 28.876ZM101.131 31.516C100.779 31.736 100.346 31.9047 99.8325 32.022C99.3339 32.1393 98.7985 32.198 98.2265 32.198C96.6719 32.198 95.4765 31.8167 94.6405 31.054C93.8045 30.2913 93.3865 29.1547 93.3865 27.644V23.64H91.6485V20.516H93.3865V17.414H97.5665V20.516H100.295V23.64H97.5665V27.6C97.5665 28.0253 97.6765 28.3627 97.8965 28.612C98.1312 28.8467 98.4392 28.964 98.8205 28.964C99.3045 28.964 99.7299 28.8393 100.097 28.59L101.131 31.516ZM103.402 15.676H105.514V32H103.402V15.676ZM113.793 20.23C115.406 20.23 116.638 20.626 117.489 21.418C118.354 22.21 118.787 23.3907 118.787 24.96V32H116.785V30.46C116.433 31.0027 115.927 31.4207 115.267 31.714C114.622 31.9927 113.852 32.132 112.957 32.132C111.652 32.132 110.603 31.8167 109.811 31.186C109.034 30.5553 108.645 29.7267 108.645 28.7C108.645 27.6733 109.019 26.852 109.767 26.236C110.515 25.6053 111.703 25.29 113.331 25.29H116.675V24.872C116.675 23.9627 116.411 23.266 115.883 22.782C115.355 22.298 114.578 22.056 113.551 22.056C112.862 22.056 112.187 22.1733 111.527 22.408C110.867 22.628 110.31 22.9287 109.855 23.31L108.975 21.726C109.576 21.242 110.295 20.8753 111.131 20.626C111.967 20.362 112.854 20.23 113.793 20.23ZM113.309 30.504C114.116 30.504 114.812 30.328 115.399 29.976C115.986 29.6093 116.411 29.096 116.675 28.436V26.808H113.419C111.63 26.808 110.735 27.4093 110.735 28.612C110.735 29.1987 110.962 29.6607 111.417 29.998C111.872 30.3353 112.502 30.504 113.309 30.504ZM124.719 22.298C125.086 21.6233 125.629 21.11 126.347 20.758C127.066 20.406 127.939 20.23 128.965 20.23V22.276C128.848 22.2613 128.687 22.254 128.481 22.254C127.337 22.254 126.435 22.5987 125.775 23.288C125.13 23.9627 124.807 24.9307 124.807 26.192V32H122.695V20.34H124.719V22.298Z" fill="#282828"/>
<path fill-rule="evenodd" clip-rule="evenodd" d="M27.0803 49.9147C39.9142 48.8575 50 38.1067 50 25C50 11.1929 38.8072 0 25 0C11.1929 0 0 11.1929 0 25C0 26.1225 0.0739807 27.2277 0.217332 28.3112C0.619283 27.807 1.05359 27.3202 1.52025 26.8537C7.699 20.6748 17.402 20.1682 24.1587 25.3337L29.3337 20.1585C28.7025 19.2357 28.3333 18.1192 28.3333 16.9167C28.3333 13.741 30.9077 11.1667 34.0833 11.1667C37.259 11.1667 39.8333 13.741 39.8333 16.9167C39.8333 20.0923 37.259 22.6667 34.0833 22.6667C33.0773 22.6667 32.1317 22.4083 31.3092 21.9543L26.1493 27.1142C32.2127 33.4345 32.5228 43.2378 27.0803 49.9147Z" fill="#282828"/>
<path d="M10.1667 32.6667C12.0077 32.6667 13.5 31.1743 13.5 29.3333C13.5 27.4924 12.0077 26 10.1667 26C8.32576 26 6.83337 27.4924 6.83337 29.3333C6.83337 31.1743 8.32576 32.6667 10.1667 32.6667Z" fill="#282828"/>
<path d="M34.0833 21.3333C36.6146 21.3333 38.6667 19.2813 38.6667 16.75C38.6667 14.2187 36.6146 12.1667 34.0833 12.1667C31.552 12.1667 29.5 14.2187 29.5 16.75C29.5 19.2813 31.552 21.3333 34.0833 21.3333Z" fill="#282828"/>
<path d="M24 45.5C25.8409 45.5 27.3333 44.0076 27.3333 42.1667C27.3333 40.3257 25.8409 38.8333 24 38.8333C22.159 38.8333 20.6666 40.3257 20.6666 42.1667C20.6666 44.0076 22.159 45.5 24 45.5Z" fill="#282828"/>
<path d="M35.8527 12.7973C35.8527 12.7973 33.9515 12.6448 32.4602 13.4328C30.9688 14.2208 30.0192 15.8807 30.0192 15.8807C30.0192 15.8807 30.7282 13.8455 32.2195 13.0575C33.7108 12.2695 35.8527 12.7973 35.8527 12.7973Z" fill="white"/>
</svg>
